^C:\USERS\ACHAL\DOCUMENTS\VISUAL STUDIO 2010\PROJECTS\VHDL PROGRAMMER PORTED\VHDL PROGRAMMER PORTED\MY PROJECT\RESOURCES.RESX
^C:\USERS\ACHAL\DOCUMENTS\VISUAL STUDIO 2010\PROJECTS\VHDL PROGRAMMER PORTED\VHDL PROGRAMMER PORTED\CLASSES\VHDLPROGRAMMER\MAINFORM.RESX
^C:\USERS\ACHAL\DOCUMENTS\VISUAL STUDIO 2010\PROJECTS\VHDL PROGRAMMER PORTED\VHDL PROGRAMMER PORTED\CLASSES\VHDLPROGRAMMER\CONSTRUCTS\ENTITYFORM.RESX
^C:\USERS\ACHAL\DOCUMENTS\VISUAL STUDIO 2010\PROJECTS\VHDL PROGRAMMER PORTED\VHDL PROGRAMMER PORTED\CLASSES\VHDLPROGRAMMER\CONSTRUCTS\ARCHITECTUREFORM.RESX
^C:\USERS\ACHAL\DOCUMENTS\VISUAL STUDIO 2010\PROJECTS\VHDL PROGRAMMER PORTED\VHDL PROGRAMMER PORTED\VHDLPROGRAMMER\CONSTRUCTS\ARCHITECTUREFORM.RESX
^C:\USERS\ACHAL\DOCUMENTS\VISUAL STUDIO 2010\PROJECTS\VHDL PROGRAMMER PORTED\VHDL PROGRAMMER PORTED\VHDLPROGRAMMER\CONSTRUCTS\ENTITYFORM.RESX
^C:\USERS\ACHAL\DOCUMENTS\VISUAL STUDIO 2010\PROJECTS\VHDL PROGRAMMER PORTED\VHDL PROGRAMMER PORTED\VHDLPROGRAMMER\DATA OBJECTS\SIGNAL.RESX
^C:\USERS\ACHAL\DOCUMENTS\VISUAL STUDIO 2010\PROJECTS\VHDL PROGRAMMER PORTED\VHDL PROGRAMMER PORTED\VHDLPROGRAMMER\MAINFORM.RESX
^C:\USERS\ACHAL\DOCUMENTS\VISUAL STUDIO 2010\PROJECTS\VHDL PROGRAMMER PORTED\VHDL PROGRAMMER PORTED\VHDLPROGRAMMER\TYPE\COMPOSITE\ARRAYFORM.RESX
^C:\USERS\ACHAL\DOCUMENTS\VISUAL STUDIO 2010\PROJECTS\VHDL PROGRAMMER PORTED\VHDL PROGRAMMER PORTED\VHDLPROGRAMMER\TYPE\COMPOSITE\RECORDFORM.RESX
^C:\USERS\ACHAL\DOCUMENTS\VISUAL STUDIO 2010\PROJECTS\VHDL PROGRAMMER PORTED\VHDL PROGRAMMER PORTED\VHDLPROGRAMMER\TYPE\SCALAR\ENUMERATEDFORM.RESX
^C:\USERS\ACHAL\DOCUMENTS\VISUAL STUDIO 2010\PROJECTS\VHDL PROGRAMMER PORTED\VHDL PROGRAMMER PORTED\VHDLPROGRAMMER\TYPE\SCALAR\FLOATFORM.RESX
^C:\USERS\ACHAL\DOCUMENTS\VISUAL STUDIO 2010\PROJECTS\VHDL PROGRAMMER PORTED\VHDL PROGRAMMER PORTED\VHDLPROGRAMMER\TYPE\SCALAR\INTEGERFORM.RESX
